{
	"id": "178c820b-b43f-4585-993f-67920a4cf215",
	"name": "Dierenwinkel",
	"values": [
		{
			"key": "id",
			"value": "1234",
			"description": "",
			"enabled": true
		},
		{
			"key": "name",
			"value": "Siepie",
			"description": "",
			"enabled": true
		},
		{
			"key": "status",
			"value": "available",
			"description": "",
			"enabled": true
		}
	],
	"_postman_variable_scope": "environment",
	"_postman_exported_at": "2019-03-31T13:44:50.944Z",
	"_postman_exported_using": "Postman/7.0.6"
}